{
    "name": "BaseInputAction",
    "maps": [
        {
            "name": "default",
            "id": "70a4ad27-6dd8-4396-90d1-ed736c4c4836",
            "actions": [
                {
                    "name": "Tap",
                    "type": "Button",
                    "id": "7fc1a821-65e8-4e25-985f-92a6c4ecb70e",
                    "expectedControlType": "Button",
                    "processors": "",
                    "interactions": ""
                },
                {
                    "name": "DoubleTap",
                    "type": "Button",
                    "id": "5364349c-4e6e-4385-a0e5-914ed619cdb2",
                    "expectedControlType": "Button",
                    "processors": "",
                    "interactions": "MultiTap"
                },
                {
                    "name": "HoldTap",
                    "type": "Button",
                    "id": "deb5e328-918b-4b83-95d1-403bd34b95f2",
                    "expectedControlType": "Button",
                    "processors": "",
                    "interactions": "Hold"
                },
                {
                    "name": "PointerPosition",
                    "type": "Value",
                    "id": "41d712e1-f24d-40c3-b24e-40e7611a5c50",
                    "expectedControlType": "Vector2",
                    "processors": "",
                    "interactions": ""
                },
                {
                    "name": "Pinch",
                    "type": "Value",
                    "id": "b35222a9-11e0-4144-a677-3f36dc4e4955",
                    "expectedControlType": "Vector2",
                    "processors": "",
                    "interactions": ""
                }
            ],
            "bindings": [
                {
                    "name": "",
                    "id": "44772537-303b-444c-aa2f-625eb3e8f1ea",
                    "path": "<Touchscreen>/press",
                    "interactions": "",
                    "processors": "",
                    "groups": "Touch",
                    "action": "Tap",
                    "isComposite": false,
                    "isPartOfComposite": false
                },
                {
                    "name": "",
                    "id": "f754a409-9fe3-4a28-920d-aae20facbdd0",
                    "path": "<Mouse>/leftButton",
                    "interactions": "",
                    "processors": "",
                    "groups": "Keyboad/Mouse",
                    "action": "Tap",
                    "isComposite": false,
                    "isPartOfComposite": false
                },
                {
                    "name": "",
                    "id": "d0e96087-eaa4-459b-8ade-d2deb470279b",
                    "path": "<Mouse>/leftButton",
                    "interactions": "",
                    "processors": "",
                    "groups": "Keyboad/Mouse",
                    "action": "DoubleTap",
                    "isComposite": false,
                    "isPartOfComposite": false
                },
                {
                    "name": "",
                    "id": "e9d9ee24-e6d6-415a-bb25-ba74cf172489",
                    "path": "<Touchscreen>/press",
                    "interactions": "",
                    "processors": "",
                    "groups": "Touch",
                    "action": "DoubleTap",
                    "isComposite": false,
                    "isPartOfComposite": false
                },
                {
                    "name": "",
                    "id": "2f9a07bc-abd3-4977-87ae-6218b0cb05b9",
                    "path": "<Touchscreen>/press",
                    "interactions": "",
                    "processors": "",
                    "groups": "Touch",
                    "action": "HoldTap",
                    "isComposite": false,
                    "isPartOfComposite": false
                },
                {
                    "name": "",
                    "id": "b086d890-eb3e-4a53-a24e-7fba7067e4ac",
                    "path": "<Mouse>/leftButton",
                    "interactions": "",
                    "processors": "",
                    "groups": "Keyboad/Mouse",
                    "action": "HoldTap",
                    "isComposite": false,
                    "isPartOfComposite": false
                },
                {
                    "name": "",
                    "id": "0c169b25-5d85-4a7f-8222-53c86e46f68e",
                    "path": "<Touchscreen>/position",
                    "interactions": "",
                    "processors": "",
                    "groups": "Touch",
                    "action": "PointerPosition",
                    "isComposite": false,
                    "isPartOfComposite": false
                },
                {
                    "name": "",
                    "id": "dda9550e-e0d1-4c5a-b2a4-5abc1cdc9ce0",
                    "path": "<Mouse>/position",
                    "interactions": "",
                    "processors": "",
                    "groups": "Keyboad/Mouse",
                    "action": "PointerPosition",
                    "isComposite": false,
                    "isPartOfComposite": false
                },
                {
                    "name": "",
                    "id": "acb4b9a5-8536-404b-b897-b5cfd6abef4c",
                    "path": "<Touchscreen>/touch1/position",
                    "interactions": "",
                    "processors": "",
                    "groups": "Touch",
                    "action": "Pinch",
                    "isComposite": false,
                    "isPartOfComposite": false
                },
                {
                    "name": "",
                    "id": "4d2feebd-ec1d-47c2-ab3f-18089844462b",
                    "path": "<Mouse>/scroll",
                    "interactions": "",
                    "processors": "",
                    "groups": "Keyboad/Mouse",
                    "action": "Pinch",
                    "isComposite": false,
                    "isPartOfComposite": false
                }
            ]
        }
    ],
    "controlSchemes": [
        {
            "name": "Keyboad/Mouse",
            "bindingGroup": "Keyboad/Mouse",
            "devices": [
                {
                    "devicePath": "<Keyboard>",
                    "isOptional": false,
                    "isOR": false
                },
                {
                    "devicePath": "<Mouse>",
                    "isOptional": false,
                    "isOR": false
                }
            ]
        },
        {
            "name": "Touch",
            "bindingGroup": "Touch",
            "devices": [
                {
                    "devicePath": "<Touchscreen>",
                    "isOptional": false,
                    "isOR": false
                }
            ]
        }
    ]
}