%YAML 1.1
%TAG !u! tag:unity3d.com,2011:
--- !u!114 &11400000
MonoBehaviour:
  m_ObjectHideFlags: 0
  m_CorrespondingSourceObject: {fileID: 0}
  m_PrefabInstance: {fileID: 0}
  m_PrefabAsset: {fileID: 0}
  m_GameObject: {fileID: 0}
  m_Enabled: 1
  m_EditorHideFlags: 0
  m_Script: {fileID: 11500000, guid: 4a0aa043a9a3b4041b61ecf5960a47b7, type: 3}
  m_Name: AdvertiseSettings
  m_EditorClassIdentifier: 
  GameIdIOS: 3929800
  GameIdAndroid: 3929801
  BannerInfo:
    BannerName: banner
    BannerPosition: 4
    ShowBanner: 1
  IsTestMode: 1
  AdsPaitingsList:
  - AdsDashboardName: video
    AdsType: 0
  - AdsDashboardName: rewardedVideo
    AdsType: 1
